{
	"fileVersion": 1,
	"versions": {
		"botan": "1.12.10",
		"botan-math": "1.0.3",
		"ddmp": "0.0.1-0.dev.3",
		"diet-ng": "1.5.0",
		"eventcore": "0.8.42",
		"fluent-asserts": "0.12.4",
		"jasterialise": "0.0.4",
		"jastream": "0.1.0",
		"jcli": "~master",
		"libasync": "0.8.4",
		"libdparse": "0.8.8",
		"libevent": "2.0.2+2.0.16",
		"memutils": "0.4.13",
		"mir-linux-kernel": "1.0.1",
		"openssl": "1.1.6+1.0.1g",
		"scriptlike": "0.10.2",
		"sdlang-d": "0.10.5",
		"stdx-allocator": "2.77.5",
		"taggedalgebraic": "0.11.3",
		"unit-threaded": "0.7.55",
		"vibe-core": "1.6.2",
		"vibe-d": "0.8.5"
	}
}
